Introduction to R for text analysis
…
One of the first things that one will often, but not always, want to do with a text when computationally analyzing it is break it into its individual words, where each individual instance of a word is called a token. This is called “tokenizing” the text. Using the tidyverse and tidy’s philosophy of data formatting (a well-developed philosophy, see https://tidyr.tidyverse.org/articles/tidy-data.html) we will tokenize the text and make each token a row in the dataframe. We do this by using the unnest_tokens() command (part of the tidytext library, thus we’ll need to load this library as well) and “passing” (inputing into the function) the name we’d like to use for the column of words – let’s be boring and use the word “word” – of the column of words it creates, and the text that it will be tokenizing and turning into columns.

library(tidytext)
nrk %>%
  unnest_tokens(token, text)

## # A tibble: 197 x 2
##    paragraph token         
##        <int> <chr>         
##  1         1 kl            
##  2         1 12            
##  3         1 legger        
##  4         1 finansminister
##  5         1 trygve        
##  6         1 slagsvold     
##  7         1 vedum         
##  8         1 sp            
##  9         1 fram          
## 10         1 regjeringens  
## # ... with 187 more rows

Here we used a %>% sign which is called a “pipe”. Essentially what this says is to take what comes before the pipe (the variable nrk) and use it as the first argument (the first input into) the following function. So it’s the same as typing unnest_tokens(nrk, token, text). As we’ll see shortly these pipes can be piled upon one another and save typing.

Notice too that `unnest_tokens()`` also does some other work for us – it turns all letters into lower case and removes punctuation.

This is actually all we need to create a word frequency list.

nrk %>%
  unnest_tokens(token, text) %>%
  count(token, sort = TRUE)

## # A tibble: 111 x 2
##    token           n
##    <chr>       <int>
##  1 prosent         8
##  2 til             7
##  3 i               6
##  4 for             5
##  5 regjeringen     5
##  6 aksjer          4
##  7 av              4
##  8 det             4
##  9 fra             4
## 10 på              4
## # ... with 101 more rows
…
So what we want to do is take our nrk tibble and for every word, ie every row of the dataframe, check if it’s in stopwords("no") and if it is remove it. This is accomplished with what is called an “anti-join”, doing exactly what the previous sentence said. First, we turn the list (actually a character vector) of stopwords into a tibble with the column of the same name as our column of words in nrk (here called tokens) so we don’t have to specify it in our anti-join.

stop_no <- tibble(token = stopwords("no"))
nrk %>%
  unnest_tokens(token, text) %>%
  anti_join(stop_no) %>%
  count(token, sort = TRUE)

## Joining, by = "token"

## # A tibble: 88 x 2
##    token              n
##    <chr>          <int>
##  1 prosent            8
##  2 regjeringen        5
##  3 aksjer             4
##  4 øke                4
##  5 formuesskatten     3
##  6 neste              3
##  7 år                 3
##  8 2021               2
##  9 35                 2
## 10 45                 2
## # ... with 78 more rows
…
## [1] "endring" "endring" "endring"

To apply this to our “corpus” of 4 paragraphs of the nrk text, we use the mutate function that creates a new column of our dataframe, the stemmed word. Then we apply our count() function to get a top frequency list.

(nrk_stemmed <- nrk %>%
  unnest_tokens(token, text) %>%
  anti_join(stop_no) %>%
  mutate(stemmed_token = wordStem(token, "no")) %>%
  count(stemmed_token, sort = TRUE)
)

## Joining, by = "token"

## # A tibble: 85 x 2
##    stemmed_token     n
##    <chr>         <int>
##  1 prosent           8
##  2 aksj              6
##  3 regjering         6
##  4 verdi             4
##  5 øke               4
##  6 formuesskatt      3
##  7 nest              3
##  8 år                3
##  9 2021              2
## 10 35                2
## # ... with 75 more rows
…
## Selecting by freq

wordcloud2(data, size = 2)

4 Larger corpora

We now have basic tools that we can apply to larger corpora. The details of reading in texts and corpora would take much longer than the time we have today but R has a number of packages that allow us to access texts that have already been digitized and cleaned. One example is the gutenbergr which allows you to access texts in the Project Gutenberg library (https://www.gutenberg.org/). If you go to the site and search books, you’ll see that everyone has an ID number that we can then use to get the texts in R. We’ll use the English translation of Pan, by Knut Hamsun, as our example. We’ll do the same as above, with the slight difference of language for stemming and stopwording.

library(gutenbergr)
pan <- gutenberg_download(7214, strip = TRUE)
pan

## # A tibble: 5,254 x 2
##    gutenberg_id text                                                           
##           <int> <chr>                                                          
##  1         7214 "PAN"                                                          
##  2         7214 ""                                                             
##  3         7214 "By Knut Hamsun"                                               
##  4         7214 ""                                                             
##  5         7214 "Translated from the Norwegian of Knut Hamsun By W. W. Worster"
##  6         7214 ""                                                             
##  7         7214 "With an Introduction by Edwin Bjoerkman"                      
##  8         7214 ""                                                             
##  9         7214 "New York"                                                     
## 10         7214 ""                                                             
## # ... with 5,244 more rows

This is the whole novel together with a number of headers, translator’s introduction, and so on. We can view the whole thing in R in a separate window with View(pan). When we do this we see that the novel itself begins on line 242 so we’ll cut it down to this and then look at word frequencies.

pan %>%
  unnest_tokens(token, text) %>%
  count(token, sort = TRUE)

## # A tibble: 4,158 x 2
##    token     n
##    <chr> <int>
##  1 the    1965
##  2 i      1927
##  3 and    1662
##  4 to     1009
##  5 a       983
##  6 of      797
##  7 was     689
##  8 it      683
##  9 in      639
## 10 you     625
## # ... with 4,148 more rows

We’ll definitely want to remove stopwords. We’ll use the stop_words dataframe of English stopwords in `tidytext, thought we could also do this from thetmpackage in the same way as above (ie.tibble(token = stopwords(“en”))``). We’ll stem at the same time.

pan_words <- pan %>%
  unnest_tokens(token, text) %>%
  anti_join(stop_words, by = c("token" = "word")) %>%
  mutate(stemmed_token = wordStem(token, "en")) %>%
  count(stemmed_token, sort = TRUE)
pan_words

## # A tibble: 2,680 x 2
##    stemmed_token     n
##    <chr>         <int>
##  1 day             153
##  2 edwarda         140
##  3 time            140
##  4 answer          107
##  5 look             93
##  6 eye              91
##  7 hand             86
##  8 glahn            85
##  9 hut              84
## 10 night            81
## # ... with 2,670 more rows
…
